<svg width="34" height="36" viewBox="0 0 34 36" fill="none" xmlns="http://www.w3.org/2000/svg">
<g filter="url(#filter0_d)">
<g clip-path="url(#clip0)">
<path d="M26.7332 12.0616L25.7481 11.2173C25.2309 10.7739 24.9333 10.1265 24.9333 9.44545V9.33334C25.191 9.33334 25.3999 9.12439 25.3999 8.86667V7.00001C25.3999 6.22686 24.7731 5.60001 23.9999 5.60001H22.1333C21.3601 5.60001 20.7333 6.22686 20.7333 7.00001V8.86667C20.7333 9.12439 20.9422 9.33334 21.1999 9.33334V9.44545C21.2004 10.1272 20.9026 10.775 20.3846 11.2187L19.4005 12.0629C18.4692 12.86 17.9331 14.0248 17.9333 15.2508V24.7333C17.9353 26.5367 19.3966 27.998 21.1999 28H24.9333C26.7366 27.998 28.1979 26.5367 28.1999 24.7333V15.2508C28.2006 14.0244 27.6647 12.8591 26.7332 12.0616ZM21.6666 7.00001C21.6666 6.74229 21.8756 6.53334 22.1333 6.53334H23.9999C24.2577 6.53334 24.4666 6.74229 24.4666 7.00001V8.40001H21.6666V7.00001ZM27.2666 24.7333C27.265 26.0215 26.2214 27.0651 24.9333 27.0667H21.1999C19.9121 27.0651 18.8682 26.0215 18.8666 24.7333V15.2508C18.8662 14.2969 19.2829 13.3905 20.0075 12.7704L20.9924 11.9258C21.717 11.3055 22.1337 10.3991 22.1333 9.44545V9.33334H23.9999V9.44545C23.9999 10.3991 24.4165 11.3051 25.1404 11.9258L26.1261 12.7704C26.8505 13.3907 27.2671 14.2969 27.2666 15.2508V24.7333Z" fill="#515151"/>
<path d="M10.9333 23.8C9.12997 23.7979 7.66868 22.3366 7.66663 20.5333V16.8C7.66663 14.9958 9.12929 13.5333 10.9333 13.5333C12.7375 13.5333 14.2 14.9958 14.2 16.8V20.5333C14.1979 22.3366 12.7366 23.7979 10.9333 23.8ZM10.9333 14.4667C9.6454 14.4683 8.60155 15.5119 8.59996 16.8V20.5333C8.59996 21.8219 9.64472 22.8667 10.9333 22.8667C12.2221 22.8667 13.2666 21.8219 13.2666 20.5333V16.8C13.265 15.5119 12.2214 14.4683 10.9333 14.4667Z" fill="#F7941E"/>
<path d="M23.0666 22.4C21.5208 22.3984 20.2682 21.1458 20.2666 19.6V18.6667C20.2666 17.1204 21.5203 15.8667 23.0666 15.8667C24.6131 15.8667 25.8666 17.1204 25.8666 18.6667V19.6C25.865 21.1458 24.6124 22.3984 23.0666 22.4ZM23.0666 16.8C22.0357 16.8 21.1999 17.6358 21.1999 18.6667V19.6C21.1999 20.6309 22.0357 21.4667 23.0666 21.4667C24.0975 21.4667 24.9333 20.6309 24.9333 19.6V18.6667C24.9333 17.6358 24.0975 16.8 23.0666 16.8Z" fill="#515151"/>
<path d="M24.9333 2.8C24.1601 2.8 23.5333 2.17314 23.5333 1.4C23.5333 0.626855 24.1601 0 24.9333 0C25.7064 0 26.3333 0.626855 26.3333 1.4C26.3333 2.17314 25.7064 2.8 24.9333 2.8ZM24.9333 0.933333C24.6755 0.933333 24.4666 1.14229 24.4666 1.4C24.4666 1.65771 24.6755 1.86667 24.9333 1.86667C25.191 1.86667 25.3999 1.65771 25.3999 1.4C25.3999 1.14229 25.191 0.933333 24.9333 0.933333Z" fill="#515151"/>
<path d="M27.2666 6.53332C26.2358 6.53332 25.4 5.69751 25.4 4.66665C25.4 3.6358 26.2358 2.79999 27.2666 2.79999C28.2975 2.79999 29.1333 3.6358 29.1333 4.66665C29.1333 5.69751 28.2975 6.53332 27.2666 6.53332ZM27.2666 3.73332C26.7512 3.73332 26.3333 4.15122 26.3333 4.66665C26.3333 5.18208 26.7512 5.59999 27.2666 5.59999C27.7821 5.59999 28.2 5.18208 28.2 4.66665C28.2 4.15122 27.7821 3.73332 27.2666 3.73332Z" fill="#515151"/>
<path d="M16.0666 0H8.59999C7.82685 0 7.2 0.626855 7.2 1.4C7.2 2.17314 7.82685 2.8 8.59999 2.8H9.06666V3.73333H8.59999C8.34228 3.73333 8.13333 3.94229 8.13333 4.2V7C8.13333 7.25771 8.34228 7.46667 8.59999 7.46667V7.71299C8.60159 8.24368 8.30172 8.72926 7.82639 8.9651L7.70449 9.02572C5.96064 9.89023 4.86029 11.671 4.86667 13.6174V24.7333C4.86872 26.5367 6.33001 27.9979 8.13333 28H13.7333C15.5366 27.9979 16.9979 26.5367 17 24.7333V13.6174C17.0066 11.671 15.906 9.89023 14.1622 9.02572L14.0405 8.9651C13.5652 8.72926 13.2651 8.24368 13.2667 7.71299V7.46667C13.5244 7.46667 13.7333 7.25771 13.7333 7V4.2C13.7333 3.94229 13.5244 3.73333 13.2667 3.73333H12.8V2.8H16.0666C16.3244 2.8 16.5333 3.00895 16.5333 3.26667V4.2C16.5333 4.45772 16.7423 4.66667 17 4.66667H18.8666C19.1244 4.66667 19.3333 4.45772 19.3333 4.2V3.26667C19.3313 1.46335 17.87 0.00205078 16.0666 0ZM9.06666 4.66667H12.8V6.53333H9.06666V4.66667ZM13.6233 9.8L13.7445 9.86061C15.1714 10.5679 16.0721 12.0249 16.0666 13.6174V24.7333C16.0651 26.0215 15.0214 27.0651 13.7333 27.0667H8.13333C6.84544 27.0651 5.80159 26.0215 5.8 24.7333V13.6174C5.79476 12.0249 6.69528 10.5679 8.12216 9.86061L8.24339 9.8C9.03613 9.40716 9.53629 8.59779 9.53333 7.71299V7.46667H12.3333V7.71299C12.3304 8.59779 12.8307 9.40716 13.6233 9.8ZM11.8667 3.73333H9.99999V2.8H11.8667V3.73333ZM18.4 3.73333H17.4666V3.26667C17.4666 2.49352 16.8398 1.86667 16.0666 1.86667H8.59999C8.34228 1.86667 8.13333 1.65771 8.13333 1.4C8.13333 1.14229 8.34228 0.933333 8.59999 0.933333H16.0666C17.3548 0.934928 18.3984 1.97855 18.4 3.26667V3.73333Z" fill="#515151"/>
</g>
</g>
<defs>
<filter id="filter0_d" x="-1" y="0" width="36" height="36" filterUnits="userSpaceOnUse" color-interpolation-filters="sRGB">
<feFlood flood-opacity="0" result="BackgroundImageFix"/>
<feColorMatrix in="SourceAlpha" type="matrix" values="0 0 0 0 0 0 0 0 0 0 0 0 0 0 0 0 0 0 127 0"/>
<feOffset dy="4"/>
<feGaussianBlur stdDeviation="2"/>
<feColorMatrix type="matrix" values="0 0 0 0 0 0 0 0 0 0 0 0 0 0 0 0 0 0 0.25 0"/>
<feBlend mode="normal" in2="BackgroundImageFix" result="effect1_dropShadow"/>
<feBlend mode="normal" in="SourceGraphic" in2="effect1_dropShadow" result="shape"/>
</filter>
<clipPath id="clip0">
<rect x="3" width="28" height="28" fill="white"/>
</clipPath>
</defs>
</svg>
