<svg width="28" height="28" viewBox="0 0 28 28" fill="none" xmlns="http://www.w3.org/2000/svg">
<path d="M24.4741 13.6889H23.2296V3.73333C23.2296 3.72422 23.225 3.71673 23.2246 3.70761C23.2221 3.67034 23.2146 3.63348 23.2023 3.59803C23.1984 3.58487 23.1938 3.5719 23.1885 3.55914C23.1691 3.5156 23.1423 3.4757 23.1093 3.44126L19.7908 0.122743C19.7564 0.089728 19.7167 0.0629919 19.6729 0.0435475C19.6608 0.0382812 19.648 0.0338252 19.6352 0.0297743C19.5992 0.0170139 19.5615 0.00951969 19.5232 0.0074942C19.5145 0.00445602 19.5054 0.00202546 19.4963 0H7.05185C5.90686 0.00141783 4.9792 0.92908 4.97778 2.07407V2.48889H3.73333C2.58834 2.49031 1.66068 3.41797 1.65926 4.56296V13.6889H0.414815C0.185735 13.6889 0 13.8746 0 14.1037V22.8148C0.00141783 23.9598 0.92908 24.8875 2.07407 24.8889H22.8148C23.9598 24.8875 24.8875 23.9598 24.8889 22.8148V14.1037C24.8889 13.8746 24.7032 13.6889 24.4741 13.6889ZM21.8134 3.31852H20.3259C20.0968 3.31852 19.9111 3.13278 19.9111 2.9037V1.4162L21.8134 3.31852ZM5.80741 2.07407C5.80741 1.38683 6.36461 0.82963 7.05185 0.82963H19.0815V2.9037C19.0815 3.59094 19.6387 4.14815 20.3259 4.14815H22.4V13.6889H19.9111V6.22222C19.9111 6.21311 19.9065 6.20561 19.9061 6.1965C19.9036 6.15923 19.8961 6.12237 19.8838 6.08692C19.8799 6.07376 19.8753 6.06079 19.87 6.04803C19.8506 6.00449 19.8238 5.96458 19.7908 5.93015L16.4723 2.61163C16.4379 2.57841 16.3977 2.55148 16.354 2.53203C16.3422 2.52717 16.3303 2.52292 16.3179 2.51927C16.2811 2.5059 16.2424 2.498 16.2031 2.49598C16.1924 2.49294 16.1857 2.48889 16.1778 2.48889H5.80741V2.07407ZM16.5926 3.90509L18.4949 5.80741H17.0074C16.7783 5.80741 16.5926 5.62167 16.5926 5.39259V3.90509ZM2.48889 4.56296C2.48889 3.87572 3.04609 3.31852 3.73333 3.31852H15.763V5.39259C15.763 6.07983 16.3202 6.63704 17.0074 6.63704H19.0815V13.6889H18.6667C17.9794 13.6889 17.4222 14.2461 17.4222 14.9333V15.763C17.4232 15.8687 17.4093 15.974 17.3807 16.0757C17.2401 16.625 16.7447 17.0086 16.1778 17.0074H8.71111C8.14054 17.0078 7.64309 16.6191 7.50515 16.0654C7.47842 15.9669 7.46525 15.865 7.46667 15.763V14.9333C7.46667 14.2461 6.90946 13.6889 6.22222 13.6889H2.48889V4.56296ZM24.0593 22.8148C24.0593 23.5021 23.5021 24.0593 22.8148 24.0593H2.07407C1.38683 24.0593 0.82963 23.5021 0.82963 22.8148V14.5185H6.22222C6.4513 14.5185 6.63704 14.7043 6.63704 14.9333V15.763C6.63542 15.9376 6.6579 16.1113 6.70388 16.2799C6.93741 17.1972 7.76441 17.8389 8.71111 17.837H16.1778C17.1208 17.8397 17.946 17.2031 18.1826 16.2902C18.2298 16.1184 18.2531 15.941 18.2519 15.763V14.9333C18.2519 14.7043 18.4376 14.5185 18.6667 14.5185H24.0593V22.8148Z" fill="#515151"/>
<path d="M15.763 18.6667H9.12591C8.43867 18.6667 7.88147 19.2239 7.88147 19.9111C7.88147 20.5984 8.43867 21.1556 9.12591 21.1556H15.763C16.4502 21.1556 17.0074 20.5984 17.0074 19.9111C17.0074 19.2239 16.4502 18.6667 15.763 18.6667ZM15.763 20.3259H9.12591C8.89683 20.3259 8.7111 20.1402 8.7111 19.9111C8.7111 19.6821 8.89683 19.4963 9.12591 19.4963H15.763C15.992 19.4963 16.1778 19.6821 16.1778 19.9111C16.1778 20.1402 15.992 20.3259 15.763 20.3259Z" fill="#F7941E"/>
<path d="M7.88149 5.80741H13.6889C13.918 5.80741 14.1037 5.62168 14.1037 5.3926C14.1037 5.16352 13.918 4.97778 13.6889 4.97778H7.88149C7.65241 4.97778 7.46667 5.16352 7.46667 5.3926C7.46667 5.62168 7.65241 5.80741 7.88149 5.80741Z" fill="#262626" fill-opacity="0.8"/>
<path d="M4.97778 7.88149C4.97778 8.11057 5.16352 8.29631 5.3926 8.29631H16.1778C16.4069 8.29631 16.5926 8.11057 16.5926 7.88149C16.5926 7.65241 16.4069 7.46667 16.1778 7.46667H5.3926C5.16352 7.46667 4.97778 7.65241 4.97778 7.88149Z" fill="#262626" fill-opacity="0.8"/>
<path d="M16.1778 9.95557H5.3926C5.16352 9.95557 4.97778 10.1413 4.97778 10.3704C4.97778 10.5995 5.16352 10.7852 5.3926 10.7852H16.1778C16.4069 10.7852 16.5926 10.5995 16.5926 10.3704C16.5926 10.1413 16.4069 9.95557 16.1778 9.95557Z" fill="#262626" fill-opacity="0.8"/>
<path d="M16.5926 12.8592C16.5926 12.6302 16.4069 12.4444 16.1778 12.4444H5.3926C5.16352 12.4444 4.97778 12.6302 4.97778 12.8592C4.97778 13.0883 5.16352 13.2741 5.3926 13.2741H16.1778C16.4069 13.2741 16.5926 13.0883 16.5926 12.8592Z" fill="#262626" fill-opacity="0.8"/>
<path d="M16.1778 14.9333H8.71114C8.48206 14.9333 8.29633 15.1191 8.29633 15.3481C8.29633 15.5772 8.48206 15.7629 8.71114 15.7629H16.1778C16.4069 15.7629 16.5926 15.5772 16.5926 15.3481C16.5926 15.1191 16.4069 14.9333 16.1778 14.9333Z" fill="#262626" fill-opacity="0.8"/>
<path d="M5.80737 4.56295C5.80737 4.33387 5.62163 4.14813 5.39255 4.14813H4.56293C3.87569 4.14813 3.31848 4.70534 3.31848 5.39258V6.22221C3.31848 6.45129 3.50422 6.63702 3.7333 6.63702C3.96238 6.63702 4.14811 6.45129 4.14811 6.22221V5.39258C4.14811 5.1635 4.33385 4.97776 4.56293 4.97776H5.39255C5.62163 4.97776 5.80737 4.79203 5.80737 4.56295Z" fill="#262626" fill-opacity="0.8"/>
<path d="M22.4 20.3259V21.9852C22.4 22.2143 22.2143 22.4 21.9852 22.4H20.3259C20.0969 22.4 19.9111 22.5857 19.9111 22.8148C19.9111 23.0439 20.0969 23.2296 20.3259 23.2296H21.9852C22.6724 23.2296 23.2296 22.6724 23.2296 21.9852V20.3259C23.2296 20.0968 23.0439 19.9111 22.8148 19.9111C22.5858 19.9111 22.4 20.0968 22.4 20.3259Z" fill="#262626" fill-opacity="0.8"/>
</svg>
