<svg width="26" height="25" viewBox="0 0 26 25" fill="none" xmlns="http://www.w3.org/2000/svg">
<path d="M25.2123 11.622L22.0975 4.77618C21.9729 4.50173 21.6938 4.32455 21.3862 4.32455H19.8456C19.8434 4.3245 19.8415 4.32459 19.8393 4.32455H15.0133C14.8818 3.96433 14.6632 3.64804 14.3781 3.39674V2.0426C14.3781 1.20246 13.6807 0.521301 12.8207 0.521301C11.9606 0.521301 11.2633 1.20246 11.2633 2.0426V3.39674C10.9781 3.64804 10.7596 3.96433 10.6281 4.32455H5.80333C5.80007 4.32459 5.79705 4.32445 5.79379 4.32455H4.25522C3.94764 4.32455 3.66853 4.50173 3.54384 4.77618L0.429124 11.622C0.38323 11.7228 0.361719 11.8275 0.361817 11.931V12.6917C0.361817 12.9242 0.416324 13.1574 0.52607 13.3721L1.30475 14.8934C1.56862 15.4085 2.10815 15.7343 2.69786 15.7343H7.36994C7.95964 15.7343 8.49917 15.4085 8.76304 14.8934L9.54172 13.3721C9.65147 13.1574 9.70597 12.9242 9.70597 12.6917V11.931C9.70607 11.8275 9.68456 11.7228 9.63867 11.622L7.01062 5.84584H10.6282C10.7597 6.20606 10.9781 6.5224 11.2633 6.77365V20.4289L9.38355 22.2652C8.93795 22.7001 8.80485 23.3545 9.0459 23.9228C9.287 24.4914 9.85465 24.8621 10.4847 24.8621H15.1567C15.7867 24.8621 16.3544 24.4914 16.5955 23.9228C16.8365 23.3545 16.7035 22.7001 16.2578 22.2652L14.3781 20.4289V6.77365C14.6632 6.52244 14.8818 6.20611 15.0133 5.84584H18.6308L16.0027 11.622C15.9569 11.7228 15.9353 11.8275 15.9354 11.931V12.6917C15.9354 12.9242 15.9899 13.1574 16.0997 13.3721L16.8783 14.8934C17.1422 15.4085 17.6817 15.7343 18.2715 15.7343H22.9435C23.5332 15.7343 24.0728 15.4085 24.3366 14.8934L25.1153 13.3721C25.2251 13.1574 25.2796 12.9242 25.2796 12.6917V11.931C25.2797 11.8275 25.2582 11.7228 25.2123 11.622ZM7.72925 11.1704H2.33859L4.76126 5.84584H5.30668L7.72925 11.1704ZM12.8207 5.84584C12.3914 5.84584 12.042 5.5045 12.042 5.0852C12.042 4.66589 12.3914 4.32455 12.8207 4.32455C13.2499 4.32455 13.5994 4.66589 13.5994 5.0852C13.5994 5.5045 13.2499 5.84584 12.8207 5.84584ZM17.9121 11.1704L20.3347 5.84584H20.8801L23.3027 11.1704H17.9121Z" fill="#F7941E"/>
</svg>
