<svg width="29" height="37" viewBox="0 0 29 37" fill="none" xmlns="http://www.w3.org/2000/svg">
<path d="M14.4786 18.1093C18.7115 18.1093 22.1432 14.0554 22.1432 9.0547C22.1432 4.05386 21.0165 0 14.4786 0C7.94077 0 6.81387 4.05386 6.81387 9.0547C6.81387 14.0554 10.2456 18.1093 14.4786 18.1093Z" fill="#FBFBFB"/>
<path d="M0.0015106 31.9346C0.000202381 31.6296 -0.00110583 31.8487 0.0015106 31.9346V31.9346Z" fill="#FBFBFB"/>
<path d="M28.9545 32.1727C28.9586 32.0892 28.9559 31.5936 28.9545 32.1727V32.1727Z" fill="#FBFBFB"/>
<path d="M28.9367 31.5406C28.7948 22.8292 27.625 20.3469 18.6737 18.7756C18.6737 18.7756 17.4137 20.3373 14.4768 20.3373C11.5399 20.3373 10.2796 18.7756 10.2796 18.7756C1.42602 20.3298 0.185133 22.7752 0.0219722 31.2576C0.00859308 31.9502 0.00239302 31.9866 0 31.9062C0.000543868 32.0569 0.00119627 32.3355 0.00119627 32.8215C0.00119627 32.8215 2.13229 36.9999 14.4768 36.9999C26.8211 36.9999 28.9524 32.8215 28.9524 32.8215C28.9524 32.5092 28.9526 32.2922 28.9529 32.1445C28.9505 32.1942 28.9457 32.0978 28.9367 31.5406Z" fill="#FBFBFB"/>
</svg>
